{
  "apps": {
    "org.onosproject.igmp": {
      "ssmTranslate": [
        {
          "source": "1.2.3.4",
          "group": "224.0.1.1"
        },
        {
          "source": "2.3.4.5",
          "group": "225.0.0.1"
        },
        {
          "source": "1.2.3.4",
          "group": "225.0.0.1"
        },
        {
          "source": "1.2.3.4",
          "group": "225.0.0.2"
        },
        {
          "source": "2.3.4.5",
          "group": "225.0.0.2"
        }
      ]
    }
  }
}
